matchup-satellite-data-to-atn_track-locations – CoastWatch Training
…
The track data has multiple longitude/latitude/time points for each date. That temporal resolution is much higher than the daily and month satellite datasets that are available. So, let’s reduce the multiple daily values for the animal track data to a single value for each day. The code below creates a new dataframe that bins data for each date and calculates the mean for selected columns.

library(dplyr)
tuna_df <- pre_tuna_df %>% group_by(Date) %>% summarize(Most.Likely.Latitude = mean(Most.Likely.Latitude),
                                         Most.Likely.Longitude = mean(Most.Likely.Longitude),
                                         Satellite.SST = mean(Satellite.SST, na.rm=TRUE),
                                         Observed.SST = mean(Observed.SST, na.rm=TRUE),
                                         Observed.Depth = mean(Observed.Depth, na.rm=TRUE),
                                         Bathymetry.Depth = mean(Bathymetry.Depth, na.rm=TRUE),
                                         )

tuna_df

## # A tibble: 177 × 7
##    Date       Most.Likely.Latitude Most.Likely.Longitude Satellite.SST
##    <date>                    <dbl>                 <dbl>         <dbl>
##  1 2022-05-31                 5.88                  198.         NaN  
##  2 2022-06-01                 5.88                  198           28.3
##  3 2022-06-02                 5.92                  198.          28.3
##  4 2022-06-03                 5.92                  198.          28.3
##  5 2022-06-04                 5.98                  198.          28.3
##  6 2022-06-05                 6.11                  198.          28.4
##  7 2022-06-06                 6.28                  198.          28.3
##  8 2022-06-07                 6.45                  197.          28.3
##  9 2022-06-08                 6.51                  197.          28.2
## 10 2022-06-09                 6.78                  197.          28.2
## # ℹ 167 more rows
## # ℹ 3 more variables: Observed.SST <dbl>, Observed.Depth <dbl>,
## #   Bathymetry.Depth <dbl>
…
make180 <- function(lon) {
    ind <- which(lon > 180)
    lon[ind] <- lon[ind] - 360
   return(lon)
}

plotTrack(chl_track,
          make180(xcoords),
          ycoords, tcoords,
          plotColor = 'viridis',
          animate = TRUE,
          cumulative = TRUE)

## # A tibble: 177 × 7
##    format width height colorspace matte filesize density
##    <chr>  <int>  <int> <chr>      <lgl>    <int> <chr>  
##  1 gif      672    480 sRGB       TRUE         0 72x72  
##  2 gif      672    480 sRGB       TRUE         0 72x72  
##  3 gif      672    480 sRGB       TRUE         0 72x72  
##  4 gif      672    480 sRGB       TRUE         0 72x72  
##  5 gif      672    480 sRGB       TRUE         0 72x72  
##  6 gif      672    480 sRGB       TRUE         0 72x72  
##  7 gif      672    480 sRGB       TRUE         0 72x72  
##  8 gif      672    480 sRGB       TRUE         0 72x72  
##  9 gif      672    480 sRGB       TRUE         0 72x72  
## 10 gif      672    480 sRGB       TRUE         0 72x72  
## # ℹ 167 more rows
…
